Who was ACTUALLY the best NBA player of the 2019-2020 NBA Season? - The Creation of Superstar Value. - Sam Metcalfe's Analytics Blog
…
valuescore %>% 
  summarise(
    Player,
    ValueZscore
  ) %>% 
  arrange(desc(ValueZscore))

## # A tibble: 420 x 2
##    Player                ValueZscore
##    <chr>                       <dbl>
##  1 James Harden                15.8 
##  2 Giannis Antetokounmpo       14.8 
##  3 Damian Lillard              12.8 
##  4 LeBron James                12.5 
##  5 Anthony Davis               12.3 
##  6 Nikola Jokić                11.7 
##  7 Luka Dončić                 11.3 
##  8 Kawhi Leonard               11.1 
##  9 Jimmy Butler                 8.40
## 10 Rudy Gobert                  8.04
## # … with 410 more rows
…
efficiencyScore %>% 
  summarise(
    Player,
    EfficiencyZscore
  ) %>% 
  arrange(desc(EfficiencyZscore))

## # A tibble: 420 x 2
##    Player                EfficiencyZscore
##    <chr>                            <dbl>
##  1 Giannis Antetokounmpo             9.95
##  2 Luka Dončić                       8.38
##  3 LeBron James                      7.70
##  4 James Harden                      7.45
##  5 Nikola Jokić                      7.27
##  6 Karl-Anthony Towns                6.87
##  7 Robert Williams                   6.24
##  8 Trae Young                        6.18
##  9 Damian Lillard                    6.15
## 10 Joel Embiid                       5.94
## # … with 410 more rows
…
StatScore %>% 
  summarise(
    Player,
    StatZscore
  ) %>% 
  arrange(desc(StatZscore))

## # A tibble: 420 x 2
##    Player                StatZscore
##    <chr>                      <dbl>
##  1 Anthony Davis              10.0 
##  2 James Harden                8.21
##  3 Andre Drummond              7.85
##  4 Hassan Whiteside            7.44
##  5 Giannis Antetokounmpo       7.38
##  6 Kawhi Leonard               7.16
##  7 Jonathan Isaac              7.13
##  8 Jimmy Butler                6.73
##  9 Ben Simmons                 6.66
## 10 LeBron James                6.51
## # … with 410 more rows
…
